%YAML 1.1
%TAG !u! tag:unity3d.com,2011:
--- !u!1001 &8598904463447881247
PrefabInstance:
  m_ObjectHideFlags: 0
  serializedVersion: 2
  m_Modification:
    m_TransformParent: {fileID: 0}
    m_Modifications:
    - target: {fileID: -3580198478825784478, guid: 8da5e069ff8a87f43930ef690490d9f7, type: 3}
      propertyPath: m_Enabled
      value: 0
      objectReference: {fileID: 0}
    - target: {fileID: 2786396665276571947, guid: 8da5e069ff8a87f43930ef690490d9f7, type: 3}
      propertyPath: m_RootOrder
      value: 0
      objectReference: {fileID: 0}
    - target: {fileID: 2786396665276571947, guid: 8da5e069ff8a87f43930ef690490d9f7, type: 3}
      propertyPath: m_LocalScale.x
      value: 6
      objectReference: {fileID: 0}
    - target: {fileID: 2786396665276571947, guid: 8da5e069ff8a87f43930ef690490d9f7, type: 3}
      propertyPath: m_LocalScale.y
      value: 6
      objectReference: {fileID: 0}
    - target: {fileID: 2786396665276571947, guid: 8da5e069ff8a87f43930ef690490d9f7, type: 3}
      propertyPath: m_LocalScale.z
      value: 6
      objectReference: {fileID: 0}
    - target: {fileID: 2786396665276571947, guid: 8da5e069ff8a87f43930ef690490d9f7, type: 3}
      propertyPath: m_LocalPosition.x
      value: 0
      objectReference: {fileID: 0}
    - target: {fileID: 2786396665276571947, guid: 8da5e069ff8a87f43930ef690490d9f7, type: 3}
      propertyPath: m_LocalPosition.y
      value: 0
      objectReference: {fileID: 0}
    - target: {fileID: 2786396665276571947, guid: 8da5e069ff8a87f43930ef690490d9f7, type: 3}
      propertyPath: m_LocalPosition.z
      value: 0
      objectReference: {fileID: 0}
    - target: {fileID: 2786396665276571947, guid: 8da5e069ff8a87f43930ef690490d9f7, type: 3}
      propertyPath: m_LocalRotation.w
      value: 1
      objectReference: {fileID: 0}
    - target: {fileID: 2786396665276571947, guid: 8da5e069ff8a87f43930ef690490d9f7, type: 3}
      propertyPath: m_LocalRotation.x
      value: 0
      objectReference: {fileID: 0}
    - target: {fileID: 2786396665276571947, guid: 8da5e069ff8a87f43930ef690490d9f7, type: 3}
      propertyPath: m_LocalRotation.y
      value: 0
      objectReference: {fileID: 0}
    - target: {fileID: 2786396665276571947, guid: 8da5e069ff8a87f43930ef690490d9f7, type: 3}
      propertyPath: m_LocalRotation.z
      value: 0
      objectReference: {fileID: 0}
    - target: {fileID: 2786396665276571947, guid: 8da5e069ff8a87f43930ef690490d9f7, type: 3}
      propertyPath: m_LocalEulerAnglesHint.x
      value: 0
      objectReference: {fileID: 0}
    - target: {fileID: 2786396665276571947, guid: 8da5e069ff8a87f43930ef690490d9f7, type: 3}
      propertyPath: m_LocalEulerAnglesHint.y
      value: 0
      objectReference: {fileID: 0}
    - target: {fileID: 2786396665276571947, guid: 8da5e069ff8a87f43930ef690490d9f7, type: 3}
      propertyPath: m_LocalEulerAnglesHint.z
      value: 0
      objectReference: {fileID: 0}
    - target: {fileID: 2786396665276571959, guid: 8da5e069ff8a87f43930ef690490d9f7, type: 3}
      propertyPath: m_Name
      value: MediumObj
      objectReference: {fileID: 0}
    - target: {fileID: 4898773162526891779, guid: 8da5e069ff8a87f43930ef690490d9f7, type: 3}
      propertyPath: m_Drag
      value: 0.01
      objectReference: {fileID: 0}
    - target: {fileID: 4898773162526891779, guid: 8da5e069ff8a87f43930ef690490d9f7, type: 3}
      propertyPath: m_Mass
      value: 5
      objectReference: {fileID: 0}
    - target: {fileID: 4898773162526891779, guid: 8da5e069ff8a87f43930ef690490d9f7, type: 3}
      propertyPath: m_AngularDrag
      value: 0.01
      objectReference: {fileID: 0}
    - target: {fileID: 8629189714847888987, guid: 8da5e069ff8a87f43930ef690490d9f7, type: 3}
      propertyPath: smallerObject
      value: 
      objectReference: {fileID: 6837063924265261064, guid: 556169dcd34a4704eb2ff0ae615c281b, type: 3}
    m_RemovedComponents:
    - {fileID: -3580198478825784478, guid: 8da5e069ff8a87f43930ef690490d9f7, type: 3}
  m_SourcePrefab: {fileID: 100100000, guid: 8da5e069ff8a87f43930ef690490d9f7, type: 3}
